ts,rel.ts (msec),rel.ts (sec), new GSP, lat.,long.,canX (m),canY (m),altitude,rel. altitude (m),frequency (MHz),rssi (dBm),distance (m from RF),distance (m from GPS),error (m)
5640852,22200,22.2,1,50.48474, 6.19492,914.2, 93.4, 1297.8,730.6,434.5,-80,141,1032.2,891.2
5651940,33288,33.288,1,50.48529, 6.19342,808.8, 154.6, 1176.3,609.1,434.5,-82,177,897.7,720.7
5664901,46249,46.249,1,50.4857, 6.19238,735.7, 200.2, 1046.6,479.4,434.5,-75,79,785.7,706.7
5680773,62121,62.121,1,50.48593, 6.19095,635.2, 225.7, 891.3,324.1,434.5,-75,79,648.9,569.9
5691640,72988,72.988,1,50.48609, 6.19019,581.8, 243.5, 784.2,217.0,434.5,-72,56,580.9,524.9
5699440,80788,80.788,1,50.48613, 6.18971,548.1, 248.0, 706.8,139.6,434.5,-72,56,539.5,483.5
5705083,86431,86.431,1,50.48612, 6.18939,525.6, 246.9, 661.6,94.4,434.5,-72,56,515.7,459.7
