avg ts, avg ts rel, avg_gps_lat, avg_gps_long, avg_gps_x_pos, avg_gps_y_pos, beacon0_ts, beacon0_freq, beacon0_rssi, beacon0_dist, beacon1_ts, beacon1_freq, beacon1_rssi, beacon1_dist, deltaT (sec.), avg_rel_alt,delay (msec), quality,fixed error,x,y, error (m vs. gps), intermediate values,beacon0_new_distance,beacon1_new_distance,new_x,new_y,new_quality,new_error,new_info
5640652, 22000,50.48471,6.195,90.1,919.8,5640452, 433.5,-75,125, 5640852, 434.5,-80,141, 0.4, 732.70,400,BAD,True,10000000000.00,10000000000.00,-1.0, INPUT: rel_alt=732.6999999999999 gpsXY: (90.07200000014564;919.834299999972) b0dist: 125 b1dist: 141) Cannot calculate X0: beacon0_distance**2 - relative_altitude**2 < 0 (b0_dist=125 & rel_alt=732.6999999999999. Set X0 to 0)cannot calculate X1: beacon1_distance**2 - relative_altitude**2 < 0 (b1_dist=141 & rel_alt=732.6999999999999)X1 + X0 = 0. No calculation,1021.0,1032.0,69.9,920.2,GOOD,20.2,INPUT: rel_alt=732.7 gpsXY: (90.1;919.8) b0dist: 1021 b1dist: 1032) X0=711.0497 X1=726.7563 a=233.2655 b=277.4811 h=671.6985 x5=109.6391 y5=249.7124 x3=149.3772 y3=-420.8097 x4=69.9010 y4=920.2344 distP3=1341.92 distP4=20.20
5649740, 31088,50.48521,6.19356,145.7,818.6,5650140, 433.5,-77,158, 5649340, 434.5,-78,112, 0.8, 632.55,800,BAD,True,10000000000.00,10000000000.00,-1.0, INPUT: rel_alt=632.55 gpsXY: (145.67200000041112;818.6454999999956) b0dist: 158 b1dist: 112) Cannot calculate X0: beacon0_distance**2 - relative_altitude**2 < 0 (b0_dist=158 & rel_alt=632.55. Set X0 to 0)cannot calculate X1: beacon1_distance**2 - relative_altitude**2 < 0 (b1_dist=112 & rel_alt=632.55)X1 + X0 = 0. No calculation,859.0,920.0,160.4,815.4,GOOD,15.0,INPUT: rel_alt=632.55 gpsXY: (145.7;818.6) b0dist: 859 b1dist: 920) X0=581.1725 X1=668.0423 a=149.1376 b=361.6090 h=561.7112 x5=193.6196 y5=254.6894 x3=226.8508 y3=-306.0379 x4=160.3884 y4=815.4168 distP3=1127.56 distP4=15.03
5651740, 33088,50.48529,6.193435,154.6,809.9,5651540, 433.5,-74,112, 5651940, 434.5,-82,177, 0.4, 611.05,400,BAD,True,10000000000.00,10000000000.00,-1.0, INPUT: rel_alt=611.05 gpsXY: (154.56800000007433;809.8617499999849) b0dist: 112 b1dist: 177) Cannot calculate X0: beacon0_distance**2 - relative_altitude**2 < 0 (b0_dist=112 & rel_alt=611.05. Set X0 to 0)cannot calculate X1: beacon1_distance**2 - relative_altitude**2 < 0 (b1_dist=177 & rel_alt=611.05)X1 + X0 = 0. No calculation,843.0,897.0,146.4,810.2,GOOD,8.2,INPUT: rel_alt=611.05 gpsXY: (154.6;809.9) b0dist: 843 b1dist: 897) X0=580.7468 X1=656.6787 a=163.3903 b=347.3563 h=557.2885 x5=179.3919 y5=253.8462 x3=212.3614 y3=-302.4662 x4=146.4223 y4=810.1587 distP3=1113.86 distP4=8.18
5652440, 33788,50.48531,6.19339,156.8,806.7,5652940, 433.5,-77,158, 5651940, 434.5,-82,177, 1.0, 603.35,1000,BAD,True,10000000000.00,10000000000.00,-1.0, INPUT: rel_alt=603.3499999999999 gpsXY: (156.79199999999014;806.6995999999798) b0dist: 158 b1dist: 177) Cannot calculate X0: beacon0_distance**2 - relative_altitude**2 < 0 (b0_dist=158 & rel_alt=603.3499999999999. Set X0 to 0)cannot calculate X1: beacon1_distance**2 - relative_altitude**2 < 0 (b1_dist=177 & rel_alt=603.3499999999999)X1 + X0 = 0. No calculation,826.0,897.0,174.7,802.1,GOOD,18.5,INPUT: rel_alt=603.35 gpsXY: (156.8;806.7) b0dist: 826 b1dist: 897) X0=564.1319 X1=663.7603 a=135.6143 b=375.1323 h=547.5888 x5=207.1192 y5=255.4895 x3=239.5150 y3=-291.1403 x4=174.7235 y4=802.1192 distP3=1100.95 distP4=18.50
5653040, 34388,50.48533,6.19336,159.0,804.6,5652940, 433.5,-77,158, 5653140, 434.5,-77,99, 0.2, 596.35,200,BAD,True,10000000000.00,10000000000.00,-1.0, INPUT: rel_alt=596.3499999999999 gpsXY: (159.01599999990594;804.5914999999972) b0dist: 158 b1dist: 99) Cannot calculate X0: beacon0_distance**2 - relative_altitude**2 < 0 (b0_dist=158 & rel_alt=596.3499999999999. Set X0 to 0)cannot calculate X1: beacon1_distance**2 - relative_altitude**2 < 0 (b1_dist=99 & rel_alt=596.3499999999999)X1 + X0 = 0. No calculation,826.0,887.0,157.1,804.1,GOOD,1.9,INPUT: rel_alt=596.35 gpsXY: (159.0;804.6) b0dist: 826 b1dist: 887) X0=571.5266 X1=656.6092 a=153.0789 b=357.6677 h=550.6446 x5=189.6852 y5=254.4563 x3=222.2617 y3=-295.2239 x4=157.1087 y4=804.1364 distP3=1101.64 distP4=1.95
5653540, 34888,50.485339999999994,6.193315,160.1,801.4,5653940, 433.5,-76,141, 5653140, 434.5,-77,99, 0.8, 590.90,800,BAD,True,10000000000.00,10000000000.00,-1.0, INPUT: rel_alt=590.9 gpsXY: (160.12799999986385;801.429349999992) b0dist: 141 b1dist: 99) Cannot calculate X0: beacon0_distance**2 - relative_altitude**2 < 0 (b0_dist=141 & rel_alt=590.9. Set X0 to 0)cannot calculate X1: beacon1_distance**2 - relative_altitude**2 < 0 (b1_dist=99 & rel_alt=590.9)X1 + X0 = 0. No calculation,814.0,887.0,176.8,798.3,GOOD,16.9,INPUT: rel_alt=590.9 gpsXY: (160.1;801.4) b0dist: 814 b1dist: 887) X0=559.8510 X1=661.5181 a=133.8130 b=376.9336 h=543.6242 x5=208.9174 y5=255.5960 x3=241.0785 y3=-287.0760 x4=176.7562 y4=798.2681 distP3=1091.48 distP4=16.95
5654040, 35388,50.48535,6.19327,161.2,798.3,5653940, 433.5,-76,141, 5654140, 434.5,-79,125, 0.2, 585.60,200,BAD,True,10000000000.00,10000000000.00,-1.0, INPUT: rel_alt=585.6 gpsXY: (161.23999999982175;798.2671999999869) b0dist: 141 b1dist: 125) Cannot calculate X0: beacon0_distance**2 - relative_altitude**2 < 0 (b0_dist=141 & rel_alt=585.6. Set X0 to 0)cannot calculate X1: beacon1_distance**2 - relative_altitude**2 < 0 (b1_dist=125 & rel_alt=585.6)X1 + X0 = 0. No calculation,814.0,876.0,157.8,797.9,GOOD,3.5,INPUT: rel_alt=585.6 gpsXY: (161.2;798.3) b0dist: 814 b1dist: 876) X0=565.3925 X1=651.4972 a=152.7980 b=357.9486 h=544.3541 x5=189.9657 y5=254.4729 x3=222.1700 y3=-288.9278 x4=157.7613 y4=797.8736 distP3=1088.94 distP4=3.47
5654540, 35888,50.48536,6.193239999999999,162.4,796.2,5654940, 433.5,-72,89, 5654140, 434.5,-79,125, 0.8, 580.35,800,BAD,True,10000000000.00,10000000000.00,-1.0, INPUT: rel_alt=580.35 gpsXY: (162.3520000001747;796.1590999999731) b0dist: 89 b1dist: 125) Cannot calculate X0: beacon0_distance**2 - relative_altitude**2 < 0 (b0_dist=89 & rel_alt=580.35. Set X0 to 0)cannot calculate X1: beacon1_distance**2 - relative_altitude**2 < 0 (b1_dist=125 & rel_alt=580.35)X1 + X0 = 0. No calculation,803.0,876.0,175.5,792.8,GOOD,13.5,INPUT: rel_alt=580.35 gpsXY: (162.4;796.2) b0dist: 803 b1dist: 876) X0=554.9801 X1=656.1782 a=135.3852 b=375.3614 h=538.2135 x5=207.3479 y5=255.5030 x3=239.1890 y3=-281.7677 x4=175.5069 y4=792.7738 distP3=1080.70 distP4=13.55
5656440, 37788,50.48544,6.19309,171.2,785.6,5656340, 433.5,-74,112, 5656540, 434.5,-77,99, 0.2, 559.60,200,BAD,True,10000000000.00,10000000000.00,-1.0, INPUT: rel_alt=559.6 gpsXY: (171.24799999983793;785.6185999999665) b0dist: 112 b1dist: 99) Cannot calculate X0: beacon0_distance**2 - relative_altitude**2 < 0 (b0_dist=112 & rel_alt=559.6. Set X0 to 0)cannot calculate X1: beacon1_distance**2 - relative_altitude**2 < 0 (b1_dist=99 & rel_alt=559.6)X1 + X0 = 0. No calculation,785.0,855.0,168.3,785.7,GOOD,2.9,INPUT: rel_alt=559.6 gpsXY: (171.2;785.6) b0dist: 785 b1dist: 855) X0=550.5205 X1=646.4308 a=142.9888 b=367.7578 h=531.6268 x5=199.7577 y5=255.0532 x3=231.2090 y3=-275.6424 x4=168.3063 y4=785.7488 distP3=1062.94 distP4=2.90
5666681, 48029,50.48573,6.19223,203.5,725.2,5667081, 433.5,-75,125, 5666281, 434.5,-72,56, 0.8, 464.15,800,BAD,True,10000000000.00,10000000000.00,-1.0, INPUT: rel_alt=464.15 gpsXY: (203.49599999980228;725.1863999999763) b0dist: 125 b1dist: 56) Cannot calculate X0: beacon0_distance**2 - relative_altitude**2 < 0 (b0_dist=125 & rel_alt=464.15. Set X0 to 0)cannot calculate X1: beacon1_distance**2 - relative_altitude**2 < 0 (b1_dist=56 & rel_alt=464.15)X1 + X0 = 0. No calculation,664.0,775.0,216.2,721.2,GOOD,13.3,INPUT: rel_alt=464.15 gpsXY: (203.5;725.2) b0dist: 664 b1dist: 775) X0=474.8271 X1=620.6366 a=99.0051 b=411.7414 h=464.3907 x5=243.6643 y5=257.6553 x3=271.1379 y3=-205.9221 x4=216.1906 y4=721.2326 distP3=933.58 distP4=13.30
5667281, 48629,50.48573,6.1922,203.5,723.1,5667081, 433.5,-75,125, 5667481, 434.5,-76,89, 0.4, 457.45,400,BAD,True,10000000000.00,10000000000.00,-1.0, INPUT: rel_alt=457.45 gpsXY: (203.49599999980228;723.0782999999625) b0dist: 125 b1dist: 89) Cannot calculate X0: beacon0_distance**2 - relative_altitude**2 < 0 (b0_dist=125 & rel_alt=457.45. Set X0 to 0)cannot calculate X1: beacon1_distance**2 - relative_altitude**2 < 0 (b1_dist=89 & rel_alt=457.45)X1 + X0 = 0. No calculation,664.0,764.0,199.5,723.1,GOOD,4.0,INPUT: rel_alt=457.45 gpsXY: (203.5;723.1) b0dist: 664 b1dist: 764) X0=481.2853 X1=611.9113 a=115.5779 b=395.1686 h=467.2015 x5=227.1205 y5=256.6748 x3=254.7604 y3=-209.7083 x4=199.4806 y4=723.0580 distP3=934.22 distP4=4.02
5668681, 50029,50.485749999999996,6.192045,205.7,712.2,5669881, 433.5,-76,141, 5667481, 434.5,-76,89, 2.4, 443.30,2400,BAD,True,10000000000.00,10000000000.00,-1.0, INPUT: rel_alt=443.29999999999995 gpsXY: (205.72000000011315;712.1864499999692) b0dist: 141 b1dist: 89) Cannot calculate X0: beacon0_distance**2 - relative_altitude**2 < 0 (b0_dist=141 & rel_alt=443.29999999999995. Set X0 to 0)cannot calculate X1: beacon1_distance**2 - relative_altitude**2 < 0 (b1_dist=89 & rel_alt=443.29999999999995)X1 + X0 = 0. No calculation,629.0,764.0,245.3,699.0,GOOD,41.7,INPUT: rel_alt=443.3 gpsXY: (205.7;712.2) b0dist: 629 b1dist: 764) X0=446.2355 X1=622.2388 a=71.2751 b=439.4714 h=440.5065 x5=271.3457 y5=259.2958 x3=297.4063 y3=-180.4391 x4=245.2850 y4=699.0307 distP3=897.34 distP4=41.72
5669981, 51329,50.48577,6.19189,207.9,701.3,5669881, 433.5,-76,141, 5670081, 434.5,-75,79, 0.2, 430.25,200,BAD,True,10000000000.00,10000000000.00,-1.0, INPUT: rel_alt=430.24999999999994 gpsXY: (207.944000000424;701.2945999999758) b0dist: 141 b1dist: 79) Cannot calculate X0: beacon0_distance**2 - relative_altitude**2 < 0 (b0_dist=141 & rel_alt=430.24999999999994. Set X0 to 0)cannot calculate X1: beacon1_distance**2 - relative_altitude**2 < 0 (b1_dist=79 & rel_alt=430.24999999999994)X1 + X0 = 0. No calculation,629.0,737.0,205.4,701.4,GOOD,2.5,INPUT: rel_alt=430.25 gpsXY: (207.9;701.3) b0dist: 629 b1dist: 737) X0=458.8311 X1=598.3761 a=110.9494 b=399.7972 h=445.2147 x5=231.7409 y5=256.9487 x3=258.0801 y3=-187.4863 x4=205.4017 y4=701.3836 distP3=890.20 distP4=2.50
5670481, 51829,50.485775000000004,6.19186,208.5,699.2,5670881, 433.5,-72,89, 5670081, 434.5,-75,79, 0.8, 425.70,800,BAD,True,10000000000.00,10000000000.00,-1.0, INPUT: rel_alt=425.69999999999993 gpsXY: (208.50000000020543;699.1864999999932) b0dist: 89 b1dist: 79) Cannot calculate X0: beacon0_distance**2 - relative_altitude**2 < 0 (b0_dist=89 & rel_alt=425.69999999999993. Set X0 to 0)cannot calculate X1: beacon1_distance**2 - relative_altitude**2 < 0 (b1_dist=79 & rel_alt=425.69999999999993)X1 + X0 = 0. No calculation,619.0,737.0,218.0,695.3,GOOD,10.3,INPUT: rel_alt=425.7 gpsXY: (208.5;699.2) b0dist: 619 b1dist: 737) X0=449.3779 X1=601.6216 a=98.7320 b=412.0146 h=438.3977 x5=243.9369 y5=257.6715 x3=269.8728 y3=-179.9583 x4=218.0010 y4=695.3012 distP3=881.30 distP4=10.27
5671081, 52429,50.485785,6.191800000000001,209.6,695.0,5670881, 433.5,-72,89, 5671281, 434.5,-75,79, 0.4, 420.00,400,BAD,True,10000000000.00,10000000000.00,-1.0, INPUT: rel_alt=419.99999999999994 gpsXY: (209.61200000016333;694.9702999999968) b0dist: 89 b1dist: 79) Cannot calculate X0: beacon0_distance**2 - relative_altitude**2 < 0 (b0_dist=89 & rel_alt=419.99999999999994. Set X0 to 0)cannot calculate X1: beacon1_distance**2 - relative_altitude**2 < 0 (b1_dist=79 & rel_alt=419.99999999999994)X1 + X0 = 0. No calculation,619.0,726.0,202.2,696.0,GOOD,7.5,INPUT: rel_alt=420.0 gpsXY: (209.6;695.0) b0dist: 619 b1dist: 726) X0=454.7098 X1=592.1790 a=114.4864 b=396.2602 h=440.0612 x5=228.2101 y5=256.7394 x3=254.2444 y3=-182.5510 x4=202.1758 y4=696.0298 distP3=878.69 distP4=7.50
5671722, 53070,50.4858,6.19173,211.3,690.1,5672164, 433.5,-70,70, 5671281, 434.5,-75,79, 0.883, 413.65,883,BAD,True,10000000000.00,10000000000.00,-1.0, INPUT: rel_alt=413.65 gpsXY: (211.28000000029772;690.0513999999957) b0dist: 70 b1dist: 79) Cannot calculate X0: beacon0_distance**2 - relative_altitude**2 < 0 (b0_dist=70 & rel_alt=413.65. Set X0 to 0)cannot calculate X1: beacon1_distance**2 - relative_altitude**2 < 0 (b1_dist=79 & rel_alt=413.65)X1 + X0 = 0. No calculation,603.0,726.0,222.0,685.4,GOOD,11.7,INPUT: rel_alt=413.65 gpsXY: (211.3;690.1) b0dist: 603 b1dist: 726) X0=438.7513 X1=596.6319 a=95.3458 b=415.4008 h=428.2661 x5=247.3172 y5=257.8718 x3=272.6537 y3=-169.6442 x4=221.9807 y4=685.3878 distP3=861.93 distP4=11.67
5672264, 53612,50.48581,6.19169,212.4,687.2,5672164, 433.5,-70,70, 5672364, 434.5,-72,56, 0.2, 408.20,200,BAD,True,10000000000.00,10000000000.00,-1.0, INPUT: rel_alt=408.2 gpsXY: (212.39200000025562;687.2406000000086) b0dist: 70 b1dist: 56) Cannot calculate X0: beacon0_distance**2 - relative_altitude**2 < 0 (b0_dist=70 & rel_alt=408.2. Set X0 to 0)cannot calculate X1: beacon1_distance**2 - relative_altitude**2 < 0 (b1_dist=56 & rel_alt=408.2)X1 + X0 = 0. No calculation,603.0,718.0,210.5,687.3,GOOD,1.9,INPUT: rel_alt=408.2 gpsXY: (212.4;687.2) b0dist: 603 b1dist: 718) X0=443.8263 X1=590.6748 a=106.6547 b=404.0919 h=430.8208 x5=236.0281 y5=257.2027 x3=261.5157 y3=-172.8634 x4=210.5404 y4=687.2689 distP3=861.46 distP4=1.86
5672864, 54212,50.485815,6.191655000000001,212.9,684.8,5673364, 433.5,-76,141, 5672364, 434.5,-72,56, 1.0, 402.80,1000,BAD,True,10000000000.00,10000000000.00,-1.0, INPUT: rel_alt=402.79999999999995 gpsXY: (212.94800000003704;684.7811500000081) b0dist: 141 b1dist: 56) Cannot calculate X0: beacon0_distance**2 - relative_altitude**2 < 0 (b0_dist=141 & rel_alt=402.79999999999995. Set X0 to 0)cannot calculate X1: beacon1_distance**2 - relative_altitude**2 < 0 (b1_dist=56 & rel_alt=402.79999999999995)X1 + X0 = 0. No calculation,592.0,718.0,223.8,680.8,GOOD,11.6,INPUT: rel_alt=402.8 gpsXY: (212.9;684.8) b0dist: 592 b1dist: 718) X0=433.8389 X1=594.3704 a=93.7863 b=416.9603 h=423.5803 x5=248.8740 y5=257.9640 x3=273.9332 y3=-164.8744 x4=223.8147 y4=680.8025 distP3=851.86 distP4=11.62
5673464, 54812,50.48582,6.19162,213.5,682.3,5673364, 433.5,-76,141, 5673564, 434.5,-74,70, 0.2, 397.60,200,BAD,True,10000000000.00,10000000000.00,-1.0, INPUT: rel_alt=397.5999999999999 gpsXY: (213.50399999981846;682.3217000000076) b0dist: 141 b1dist: 70) Cannot calculate X0: beacon0_distance**2 - relative_altitude**2 < 0 (b0_dist=141 & rel_alt=397.5999999999999. Set X0 to 0)cannot calculate X1: beacon1_distance**2 - relative_altitude**2 < 0 (b1_dist=70 & rel_alt=397.5999999999999)X1 + X0 = 0. No calculation,592.0,709.0,211.1,682.0,GOOD,2.4,INPUT: rel_alt=397.6 gpsXY: (213.5;682.3) b0dist: 592 b1dist: 709) X0=438.6094 X1=587.0224 a=106.3591 b=404.3875 h=425.5185 x5=236.3232 y5=257.2202 x3=261.4972 y3=-167.5530 x4=211.1493 y4=681.9934 distP3=851.21 distP4=2.37
5679173, 60521,50.485895,6.191095000000001,221.8,645.4,5679573, 433.5,-73,100, 5678773, 434.5,-71,50, 0.8, 341.75,800,BAD,True,10000000000.00,10000000000.00,-1.0, INPUT: rel_alt=341.75 gpsXY: (221.84400000009532;645.42995) b0dist: 100 b1dist: 50) Cannot calculate X0: beacon0_distance**2 - relative_altitude**2 < 0 (b0_dist=100 & rel_alt=341.75. Set X0 to 0)cannot calculate X1: beacon1_distance**2 - relative_altitude**2 < 0 (b1_dist=50 & rel_alt=341.75)X1 + X0 = 0. No calculation,521.0,665.0,231.8,640.9,GOOD,11.0,INPUT: rel_alt=341.75 gpsXY: (221.8;645.4) b0dist: 521 b1dist: 665) X0=393.2530 X1=570.4664 a=88.1827 b=422.5638 h=383.2385 x5=254.4677 y5=258.2956 x3=277.1403 y3=-124.2717 x4=231.7951 y4=640.8628 distP3=771.66 distP4=10.98
5679673, 61021,50.4859,6.19106,222.4,643.0,5679573, 433.5,-73,100, 5679773, 434.5,-74,70, 0.2, 336.35,200,BAD,True,10000000000.00,10000000000.00,-1.0, INPUT: rel_alt=336.34999999999997 gpsXY: (222.4000000002718;642.9704999999994) b0dist: 100 b1dist: 70) Cannot calculate X0: beacon0_distance**2 - relative_altitude**2 < 0 (b0_dist=100 & rel_alt=336.34999999999997. Set X0 to 0)cannot calculate X1: beacon1_distance**2 - relative_altitude**2 < 0 (b1_dist=70 & rel_alt=336.34999999999997)X1 + X0 = 0. No calculation,521.0,657.0,221.3,642.5,GOOD,1.2,INPUT: rel_alt=336.35 gpsXY: (222.4;643.0) b0dist: 521 b1dist: 657) X0=397.8815 X1=564.3737 a=98.5362 b=412.2104 h=385.4871 x5=244.1324 y5=257.6830 x3=266.9380 y3=-127.1289 x4=221.3267 y4=642.4949 distP3=771.42 distP4=1.19
5680173, 61521,50.485910000000004,6.19102,223.5,640.2,5680573, 433.5,-69,63, 5679773, 434.5,-74,70, 0.8, 330.60,800,BAD,True,10000000000.00,10000000000.00,-1.0, INPUT: rel_alt=330.59999999999997 gpsXY: (223.5120000002297;640.1596999999811) b0dist: 63 b1dist: 70) Cannot calculate X0: beacon0_distance**2 - relative_altitude**2 < 0 (b0_dist=63 & rel_alt=330.59999999999997. Set X0 to 0)cannot calculate X1: beacon1_distance**2 - relative_altitude**2 < 0 (b1_dist=70 & rel_alt=330.59999999999997)X1 + X0 = 0. No calculation,509.0,657.0,233.9,635.0,GOOD,11.6,INPUT: rel_alt=330.6 gpsXY: (223.5;640.2) b0dist: 509 b1dist: 657) X0=387.0202 X1=567.7611 a=86.4363 b=424.3103 h=377.2445 x5=256.2111 y5=258.3989 x3=278.5291 y3=-118.1849 x4=233.8931 y4=634.9826 distP3=760.38 distP4=11.63
5680673, 62021,50.485925,6.190965,225.2,636.3,5680573, 433.5,-69,63, 5680773, 434.5,-75,79, 0.2, 325.05,200,BAD,True,10000000000.00,10000000000.00,-1.0, INPUT: rel_alt=325.04999999999995 gpsXY: (225.1800000003641;636.2948499999712) b0dist: 63 b1dist: 79) Cannot calculate X0: beacon0_distance**2 - relative_altitude**2 < 0 (b0_dist=63 & rel_alt=325.04999999999995. Set X0 to 0)cannot calculate X1: beacon1_distance**2 - relative_altitude**2 < 0 (b1_dist=79 & rel_alt=325.04999999999995)X1 + X0 = 0. No calculation,509.0,648.0,222.3,636.3,GOOD,2.9,INPUT: rel_alt=325.05 gpsXY: (225.2;636.3) b0dist: 509 b1dist: 648) X0=391.6931 X1=560.5769 a=97.9342 b=412.8124 h=379.2524 x5=244.7334 y5=257.7187 x3=267.1702 y3=-120.8695 x4=222.2966 y4=636.3068 distP3=758.33 distP4=2.90
5681173, 62521,50.48594,6.19092,226.8,633.1,5681573, 433.5,-75,125, 5680773, 434.5,-75,79, 0.8, 319.95,800,BAD,True,10000000000.00,10000000000.00,-1.0, INPUT: rel_alt=319.94999999999993 gpsXY: (226.84800000049847;633.1326999999661) b0dist: 125 b1dist: 79) Cannot calculate X0: beacon0_distance**2 - relative_altitude**2 < 0 (b0_dist=125 & rel_alt=319.94999999999993. Set X0 to 0)cannot calculate X1: beacon1_distance**2 - relative_altitude**2 < 0 (b1_dist=79 & rel_alt=319.94999999999993)X1 + X0 = 0. No calculation,497.0,648.0,234.6,628.2,GOOD,9.2,INPUT: rel_alt=319.95 gpsXY: (226.8;633.1) b0dist: 497 b1dist: 648) X0=380.3170 X1=563.5033 a=86.1162 b=424.6304 h=370.4389 x5=256.5307 y5=258.4178 x3=278.4461 y3=-111.3723 x4=234.6153 y4=628.2079 distP3=746.26 distP4=9.22
5681773, 63121,50.48595,6.190875,228.0,630.0,5681573, 433.5,-75,125, 5681973, 434.5,-71,50, 0.4, 313.55,400,BAD,True,10000000000.00,10000000000.00,-1.0, INPUT: rel_alt=313.54999999999995 gpsXY: (227.96000000045638;629.970549999961) b0dist: 125 b1dist: 50) Cannot calculate X0: beacon0_distance**2 - relative_altitude**2 < 0 (b0_dist=125 & rel_alt=313.54999999999995. Set X0 to 0)cannot calculate X1: beacon1_distance**2 - relative_altitude**2 < 0 (b1_dist=50 & rel_alt=313.54999999999995)X1 + X0 = 0. No calculation,497.0,640.0,224.4,630.6,GOOD,3.7,INPUT: rel_alt=313.55 gpsXY: (228.0;630.0) b0dist: 497 b1dist: 640) X0=385.6104 X1=557.9305 a=96.2034 b=414.5432 h=373.4171 x5=246.4611 y5=257.8210 x3=268.5527 y3=-114.9420 x4=224.3695 y4=630.5841 distP3=746.04 distP4=3.68
5682473, 63821,50.485965,6.19082,229.6,626.1,5682973, 433.5,-75,125, 5681973, 434.5,-71,50, 1.0, 306.35,1000,BAD,True,10000000000.00,10000000000.00,-1.0, INPUT: rel_alt=306.34999999999997 gpsXY: (229.6280000001957;626.1056999999826) b0dist: 125 b1dist: 50) Cannot calculate X0: beacon0_distance**2 - relative_altitude**2 < 0 (b0_dist=125 & rel_alt=306.34999999999997. Set X0 to 0)cannot calculate X1: beacon1_distance**2 - relative_altitude**2 < 0 (b1_dist=50 & rel_alt=306.34999999999997)X1 + X0 = 0. No calculation,482.0,640.0,239.3,621.0,GOOD,11.0,INPUT: rel_alt=306.35 gpsXY: (229.6;626.1) b0dist: 482 b1dist: 640) X0=372.1205 X1=561.9161 a=81.8273 b=428.9192 h=363.0123 x5=260.8120 y5=258.6715 x3=282.2880 y3=-103.7050 x4=239.3359 y4=621.0481 distP3=731.70 distP4=10.97
5683073, 64421,50.48598,6.1907700000000006,231.3,622.6,5682973, 433.5,-75,125, 5683173, 434.5,-71,50, 0.2, 300.45,200,BAD,True,10000000000.00,10000000000.00,-1.0, INPUT: rel_alt=300.45 gpsXY: (231.29599999993502;622.5921999999907) b0dist: 125 b1dist: 50) Cannot calculate X0: beacon0_distance**2 - relative_altitude**2 < 0 (b0_dist=125 & rel_alt=300.45. Set X0 to 0)cannot calculate X1: beacon1_distance**2 - relative_altitude**2 < 0 (b1_dist=50 & rel_alt=300.45)X1 + X0 = 0. No calculation,482.0,632.0,229.2,623.0,GOOD,2.1,INPUT: rel_alt=300.45 gpsXY: (231.3;622.6) b0dist: 482 b1dist: 632) X0=376.9002 X1=556.0160 a=91.7892 b=418.9574 h=365.5524 x5=250.8675 y5=258.0822 x3=272.4939 y3=-106.8299 x4=229.2412 y4=622.9943 distP3=730.59 distP4=2.10
5683573, 64921,50.48599,6.19074,232.4,620.5,5683973, 433.5,-72,89, 5683173, 434.5,-71,50, 0.8, 295.40,800,BAD,True,10000000000.00,10000000000.00,-1.0, INPUT: rel_alt=295.4 gpsXY: (232.40799999989292;620.4840999999769) b0dist: 89 b1dist: 50) Cannot calculate X0: beacon0_distance**2 - relative_altitude**2 < 0 (b0_dist=89 & rel_alt=295.4. Set X0 to 0)cannot calculate X1: beacon1_distance**2 - relative_altitude**2 < 0 (b1_dist=50 & rel_alt=295.4)X1 + X0 = 0. No calculation,472.0,632.0,239.0,616.8,GOOD,7.5,INPUT: rel_alt=295.4 gpsXY: (232.4;620.5) b0dist: 472 b1dist: 632) X0=368.1343 X1=558.7153 a=82.4500 b=428.2966 h=358.7824 x5=260.1904 y5=258.6347 x3=281.4163 y3=-99.5193 x4=238.9646 y4=616.7887 distP3=721.69 distP4=7.54
5686473, 67821,50.48604,6.19052,238.0,605.0,5686373, 433.5,-76,141, 5686573, 434.5,-72,56, 0.2, 266.90,200,BAD,True,10000000000.00,10000000000.00,-1.0, INPUT: rel_alt=266.8999999999999 gpsXY: (237.96800000047256;605.0247000000005) b0dist: 141 b1dist: 56) Cannot calculate X0: beacon0_distance**2 - relative_altitude**2 < 0 (b0_dist=141 & rel_alt=266.8999999999999. Set X0 to 0)cannot calculate X1: beacon1_distance**2 - relative_altitude**2 < 0 (b1_dist=56 & rel_alt=266.8999999999999)X1 + X0 = 0. No calculation,446.0,610.0,236.3,604.7,GOOD,1.7,INPUT: rel_alt=266.9 gpsXY: (238.0;605.0) b0dist: 446 b1dist: 610) X0=357.3239 X1=548.5111 a=85.8332 b=424.9133 h=346.8617 x5=256.8131 y5=258.4345 x3=277.3337 y3=-87.8196 x4=236.2925 y4=604.6887 distP3=693.94 distP4=1.74
5690340, 71688,50.48608,6.19028,242.4,588.2,5690240, 433.5,-68,56, 5690440, 434.5,-72,56, 0.2, 237.40,200,BAD,True,10000000000.00,10000000000.00,-1.0, INPUT: rel_alt=237.39999999999998 gpsXY: (242.41600000030417;588.1598999999524) b0dist: 56 b1dist: 56) Cannot calculate X0: beacon0_distance**2 - relative_altitude**2 < 0 (b0_dist=56 & rel_alt=237.39999999999998. Set X0 to 0)cannot calculate X1: beacon1_distance**2 - relative_altitude**2 < 0 (b1_dist=56 & rel_alt=237.39999999999998)X1 + X0 = 0. No calculation,419.0,588.0,234.1,591.3,GOOD,8.8,INPUT: rel_alt=237.4 gpsXY: (242.4;588.2) b0dist: 419 b1dist: 588) X0=345.2568 X1=537.9454 a=88.7711 b=421.9755 h=333.6494 x5=253.8804 y5=258.2607 x3=273.6193 y3=-74.8043 x4=234.1415 y4=591.3258 distP3=663.74 distP4=8.83
5692040, 73388,50.48609,6.190165,243.5,580.1,5692440, 433.5,-69,63, 5691640, 434.5,-72,56, 0.8, 213.45,800,BAD,True,10000000000.00,10000000000.00,-1.0, INPUT: rel_alt=213.45 gpsXY: (243.527999999867;580.0788500000086) b0dist: 63 b1dist: 56) Cannot calculate X0: beacon0_distance**2 - relative_altitude**2 < 0 (b0_dist=63 & rel_alt=213.45. Set X0 to 0)cannot calculate X1: beacon1_distance**2 - relative_altitude**2 < 0 (b1_dist=56 & rel_alt=213.45)X1 + X0 = 0. No calculation,391.0,580.0,248.1,577.2,GOOD,5.4,INPUT: rel_alt=213.45 gpsXY: (243.5;580.1) b0dist: 391 b1dist: 580) X0=327.5975 X1=539.2950 a=75.7157 b=435.0309 h=318.7275 x5=266.9129 y5=259.0331 x3=285.7690 y3=-59.1361 x4=248.0568 y4=577.2024 distP3=640.63 distP4=5.40
5692540, 73888,50.48609,6.19014,243.5,578.3,5692440, 433.5,-69,63, 5692640, 434.5,-72,56, 0.2, 208.95,200,BAD,True,10000000000.00,10000000000.00,-1.0, INPUT: rel_alt=208.95 gpsXY: (243.527999999867;578.3221000000127) b0dist: 63 b1dist: 56) Cannot calculate X0: beacon0_distance**2 - relative_altitude**2 < 0 (b0_dist=63 & rel_alt=208.95. Set X0 to 0)cannot calculate X1: beacon1_distance**2 - relative_altitude**2 < 0 (b1_dist=56 & rel_alt=208.95)X1 + X0 = 0. No calculation,391.0,575.0,242.3,578.4,GOOD,1.2,INPUT: rel_alt=208.95 gpsXY: (243.5;578.3) b0dist: 391 b1dist: 575) X0=330.4859 X1=535.6910 a=81.3692 b=429.3774 h=320.3123 x5=261.2693 y5=258.6986 x3=280.2192 y3=-61.0526 x4=242.3194 y4=578.4499 distP3=640.41 distP4=1.19
5697340, 78688,50.48612,6.18984,246.9,557.2,5697240, 433.5,-67,50, 5697440, 434.5,-70,44, 0.2, 162.05,200,BAD,True,10000000000.00,10000000000.00,-1.0, INPUT: rel_alt=162.04999999999995 gpsXY: (246.86400000013577;557.2410999999682) b0dist: 50 b1dist: 44) Cannot calculate X0: beacon0_distance**2 - relative_altitude**2 < 0 (b0_dist=50 & rel_alt=162.04999999999995. Set X0 to 0)cannot calculate X1: beacon1_distance**2 - relative_altitude**2 < 0 (b1_dist=44 & rel_alt=162.04999999999995)X1 + X0 = 0. No calculation,349.0,549.0,245.4,557.0,GOOD,1.5,INPUT: rel_alt=162.05 gpsXY: (246.9;557.2) b0dist: 349 b1dist: 549) X0=309.0967 X1=524.5387 a=79.5522 b=431.1943 h=298.6842 x5=263.0831 y5=258.8061 x3=280.7534 y3=-39.3549 x4=245.4127 y4=556.9672 distP3=597.51 distP4=1.51
5697840, 79188,50.486125,6.189805,247.4,554.8,5698240, 433.5,-67,50, 5697440, 434.5,-70,44, 0.8, 156.80,800,BAD,True,10000000000.00,10000000000.00,-1.0, INPUT: rel_alt=156.79999999999995 gpsXY: (247.42000000031226;554.7816499999677) b0dist: 50 b1dist: 44) Cannot calculate X0: beacon0_distance**2 - relative_altitude**2 < 0 (b0_dist=50 & rel_alt=156.79999999999995. Set X0 to 0)cannot calculate X1: beacon1_distance**2 - relative_altitude**2 < 0 (b1_dist=44 & rel_alt=156.79999999999995)X1 + X0 = 0. No calculation,340.0,549.0,251.8,551.3,GOOD,5.7,INPUT: rel_alt=156.8 gpsXY: (247.4;554.8) b0dist: 340 b1dist: 549) X0=301.6849 X1=526.1319 a=73.4817 b=437.2649 h=292.5990 x5=269.1430 y5=259.1653 x3=286.4533 y3=-32.9213 x4=251.8326 y4=551.2518 distP3=589.02 distP4=5.68
5698340, 79688,50.48613,6.189775,248.0,552.7,5698240, 433.5,-67,50, 5698440, 434.5,-71,50, 0.2, 151.70,200,BAD,True,10000000000.00,10000000000.00,-1.0, INPUT: rel_alt=151.69999999999993 gpsXY: (247.97600000048874;552.6735499999852) b0dist: 50 b1dist: 50) Cannot calculate X0: beacon0_distance**2 - relative_altitude**2 < 0 (b0_dist=50 & rel_alt=151.69999999999993. Set X0 to 0)cannot calculate X1: beacon1_distance**2 - relative_altitude**2 < 0 (b1_dist=50 & rel_alt=151.69999999999993)X1 + X0 = 0. No calculation,340.0,544.0,246.4,552.2,GOOD,1.7,INPUT: rel_alt=151.7 gpsXY: (248.0;552.7) b0dist: 340 b1dist: 544) X0=304.2813 X1=522.4204 a=78.8317 b=431.9149 h=293.8923 x5=263.8023 y5=258.8488 x3=281.1892 y3=-34.5287 x4=246.4155 y4=552.2263 distP3=588.17 distP4=1.65
5698840, 80188,50.48613,6.18975,248.0,550.9,5699240, 433.5,-70,70, 5698440, 434.5,-71,50, 0.8, 146.10,800,BAD,True,10000000000.00,10000000000.00,-1.0, INPUT: rel_alt=146.09999999999997 gpsXY: (247.97600000048874;550.9167999999893) b0dist: 70 b1dist: 50) Cannot calculate X0: beacon0_distance**2 - relative_altitude**2 < 0 (b0_dist=70 & rel_alt=146.09999999999997. Set X0 to 0)cannot calculate X1: beacon1_distance**2 - relative_altitude**2 < 0 (b1_dist=50 & rel_alt=146.09999999999997)X1 + X0 = 0. No calculation,332.0,544.0,252.0,547.6,GOOD,5.2,INPUT: rel_alt=146.1 gpsXY: (248.0;550.9) b0dist: 332 b1dist: 544) X0=298.1255 X1=524.0141 a=73.5688 b=437.1777 h=288.9055 x5=269.0560 y5=259.1601 x3=286.1479 y3=-29.2394 x4=251.9642 y4=547.5596 distP3=581.39 distP4=5.18
5699340, 80688,50.48613,6.1897199999999994,248.0,548.8,5699240, 433.5,-70,70, 5699440, 434.5,-72,56, 0.2, 140.55,200,BAD,True,10000000000.00,10000000000.00,-1.0, INPUT: rel_alt=140.54999999999995 gpsXY: (247.97600000048874;548.8086999999755) b0dist: 70 b1dist: 56) Cannot calculate X0: beacon0_distance**2 - relative_altitude**2 < 0 (b0_dist=70 & rel_alt=140.54999999999995. Set X0 to 0)cannot calculate X1: beacon1_distance**2 - relative_altitude**2 < 0 (b1_dist=56 & rel_alt=140.54999999999995)X1 + X0 = 0. No calculation,332.0,539.0,246.6,548.6,GOOD,1.4,INPUT: rel_alt=140.55 gpsXY: (248.0;548.8) b0dist: 332 b1dist: 539) X0=300.7818 X1=520.3525 a=78.8699 b=431.8767 h=290.2572 x5=263.7642 y5=258.8465 x3=280.9360 y3=-30.9023 x4=246.5924 y4=548.5953 distP3=580.64 distP4=1.42
5699840, 81188,50.48613,6.18969,248.0,546.7,5700240, 433.5,-73,100, 5699440, 434.5,-72,56, 0.8, 135.30,800,BAD,True,10000000000.00,10000000000.00,-1.0, INPUT: rel_alt=135.29999999999995 gpsXY: (247.97600000048874;546.7005999999617) b0dist: 100 b1dist: 56) Cannot calculate X0: beacon0_distance**2 - relative_altitude**2 < 0 (b0_dist=100 & rel_alt=135.29999999999995. Set X0 to 0)cannot calculate X1: beacon1_distance**2 - relative_altitude**2 < 0 (b1_dist=56 & rel_alt=135.29999999999995)X1 + X0 = 0. No calculation,324.0,539.0,252.0,543.7,GOOD,5.0,INPUT: rel_alt=135.3 gpsXY: (248.0;546.7) b0dist: 324 b1dist: 539) X0=294.3975 X1=521.7422 a=73.7323 b=437.0143 h=285.0148 x5=268.8928 y5=259.1504 x3=285.7545 y3=-25.3652 x4=252.0311 y4=543.6661 distP3=573.31 distP4=5.05
5700340, 81688,50.48613,6.18967,248.0,545.3,5700240, 433.5,-73,100, 5700440, 434.5,-72,56, 0.2, 129.85,200,BAD,True,10000000000.00,10000000000.00,-1.0, INPUT: rel_alt=129.84999999999997 gpsXY: (247.97600000048874;545.2951999999524) b0dist: 100 b1dist: 56) Cannot calculate X0: beacon0_distance**2 - relative_altitude**2 < 0 (b0_dist=100 & rel_alt=129.84999999999997. Set X0 to 0)cannot calculate X1: beacon1_distance**2 - relative_altitude**2 < 0 (b1_dist=56 & rel_alt=129.84999999999997)X1 + X0 = 0. No calculation,324.0,535.0,247.7,544.8,GOOD,0.5,INPUT: rel_alt=129.85 gpsXY: (248.0;545.3) b0dist: 324 b1dist: 535) X0=296.8417 X1=519.0029 a=77.9379 b=432.8086 h=286.4274 x5=264.6946 y5=258.9016 x3=281.6398 y3=-27.0241 x4=247.7493 y4=544.8274 distP3=573.31 distP4=0.53
5700840, 82188,50.48613,6.18965,248.0,543.9,5701240, 433.5,-69,63, 5700440, 434.5,-72,56, 0.8, 124.60,800,BAD,True,10000000000.00,10000000000.00,-1.0, INPUT: rel_alt=124.59999999999997 gpsXY: (247.97600000048874;543.8897999999745) b0dist: 63 b1dist: 56) Cannot calculate X0: beacon0_distance**2 - relative_altitude**2 < 0 (b0_dist=63 & rel_alt=124.59999999999997. Set X0 to 0)cannot calculate X1: beacon1_distance**2 - relative_altitude**2 < 0 (b1_dist=56 & rel_alt=124.59999999999997)X1 + X0 = 0. No calculation,318.0,535.0,251.7,541.6,GOOD,4.3,INPUT: rel_alt=124.6 gpsXY: (248.0;543.9) b0dist: 318 b1dist: 535) X0=292.5728 X1=520.2882 a=74.1670 b=436.5796 h=283.0161 x5=268.4589 y5=259.1247 x3=285.2023 y3=-23.3956 x4=251.7155 y4=541.6451 distP3=568.51 distP4=4.35
5701340, 82688,50.48613,6.18963,248.0,542.5,5701240, 433.5,-69,63, 5701440, 434.5,-76,89, 0.2, 119.35,200,BAD,True,10000000000.00,10000000000.00,-1.0, INPUT: rel_alt=119.34999999999997 gpsXY: (247.97600000048874;542.4843999999964) b0dist: 63 b1dist: 89) Cannot calculate X0: beacon0_distance**2 - relative_altitude**2 < 0 (b0_dist=63 & rel_alt=119.34999999999997. Set X0 to 0)cannot calculate X1: beacon1_distance**2 - relative_altitude**2 < 0 (b1_dist=89 & rel_alt=119.34999999999997)X1 + X0 = 0. No calculation,318.0,531.0,247.5,542.5,GOOD,0.5,INPUT: rel_alt=119.35 gpsXY: (248.0;542.5) b0dist: 318 b1dist: 531) X0=294.7534 X1=517.4134 a=78.3413 b=432.4053 h=284.1518 x5=264.2919 y5=258.8778 x3=281.1025 y3=-24.7763 x4=247.4813 y4=542.5318 distP3=568.24 distP4=0.52
5701840, 83188,50.48613,6.18959,248.0,539.7,5702240, 433.5,-68,56, 5701440, 434.5,-76,89, 0.8, 113.90,800,BAD,True,10000000000.00,10000000000.00,-1.0, INPUT: rel_alt=113.89999999999992 gpsXY: (247.97600000048874;539.673599999978) b0dist: 56 b1dist: 89) Cannot calculate X0: beacon0_distance**2 - relative_altitude**2 < 0 (b0_dist=56 & rel_alt=113.89999999999992. Set X0 to 0)cannot calculate X1: beacon1_distance**2 - relative_altitude**2 < 0 (b1_dist=89 & rel_alt=113.89999999999992)X1 + X0 = 0. No calculation,309.0,531.0,253.4,536.6,GOOD,6.2,INPUT: rel_alt=113.9 gpsXY: (248.0;539.7) b0dist: 309 b1dist: 531) X0=287.2417 X1=518.6403 a=72.8170 b=437.9296 h=277.8587 x5=269.8065 y5=259.2046 x3=286.2448 y3=-18.1675 x4=253.3682 y4=536.5767 distP3=559.18 distP4=6.21
5704261, 85609,50.486125,6.18944,247.4,529.1,5703440, 433.5,-83,316, 5705083, 434.5,-72,56, 1.643, 95.35,1643,POOR,True,-167.36,839.30,517.9, INPUT: rel_alt=95.34999999999997 gpsXY: (247.42000000031226;529.1331000000025) b0dist: 316 b1dist: 56) cannot calculate X1: beacon1_distance**2 - relative_altitude**2 < 0 (b1_dist=56 & rel_alt=95.34999999999997)X0=301.2713 X1=0.0000  x0+x1 <= distance between beacons (510.7465855038819). Forced position on inter-beacons segments at 1.00 of inter-beacon distance from beacon 0.,301.0,515.0,242.1,530.8,GOOD,5.6,INPUT: rel_alt=95.35 gpsXY: (247.4;529.1) b0dist: 301 b1dist: 515) X0=285.4985 X1=506.0962 a=84.4235 b=426.3230 h=272.7307 x5=258.2203 y5=258.5179 x3=274.3553 y3=-13.7351 x4=242.0854 y4=530.7710 distP3=543.50 distP4=5.57
5705583, 86931,50.486115,6.18937,246.3,524.2,5706083, 433.5,-67,50, 5705083, 434.5,-72,56, 1.0, 81.55,1000,BAD,True,10000000000.00,10000000000.00,-1.0, INPUT: rel_alt=81.54999999999995 gpsXY: (246.3079999999593;524.2142000000016) b0dist: 50 b1dist: 56) Cannot calculate X0: beacon0_distance**2 - relative_altitude**2 < 0 (b0_dist=50 & rel_alt=81.54999999999995. Set X0 to 0)cannot calculate X1: beacon1_distance**2 - relative_altitude**2 < 0 (b1_dist=56 & rel_alt=81.54999999999995)X1 + X0 = 0. No calculation,285.0,515.0,251.9,521.1,GOOD,6.4,INPUT: rel_alt=81.55 gpsXY: (246.3;524.2) b0dist: 285 b1dist: 515) X0=273.0835 X1=508.5023 a=75.2448 b=435.5018 h=262.5125 x5=267.3830 y5=259.0610 x3=282.9134 y3=-2.9917 x4=251.8526 y4=521.1137 distP3=528.46 distP4=6.35
5710183, 91531,50.48608,6.18905,242.4,501.7,5710083, 433.5,-73,100, 5710283, 434.5,-83,199, 0.2, 17.75,200,POOR,True,173.34,507.33,69.3, INPUT: rel_alt=17.749999999999943 gpsXY: (242.41600000030417;501.7277999999791) b0dist: 100 b1dist: 199) X0=98.4121 X1=198.2068  x0+x1 <= distance between beacons (510.7465855038819). Forced position on inter-beacons segments at 0.33 of inter-beacon distance from beacon 0.,259.0,490.0,242.2,501.7,GOOD,0.2,INPUT: rel_alt=17.75 gpsXY: (242.4;501.7) b0dist: 259 b1dist: 490) X0=258.3911 X1=489.6784 a=85.9948 b=424.7518 h=243.6613 x5=256.6518 y5=258.4250 x3=271.0670 y3=15.1905 x4=242.2367 y4=501.6595 distP3=487.35 distP4=0.17
