ts,rel.ts (msec),rel.ts (sec), new GSP, lat.,long.,canX (m),canY (m),altitude,rel. altitude (m),frequency (MHz),rssi (dBm),distance (m from RF),distance (m from GPS),error (m)
5640452,21800,21.812,1,50.48468, 6.19508,925.5, 86.7, 1302.0,734.8,433.5,-75,125,1021.5,896.5
5650140,31488,31.488,1,50.48523, 6.19353,816.5, 147.9, 1195.3,628.1,433.5,-77,158,859.2,701.2
5651540,32888,32.888,1,50.48529, 6.19345,810.9, 154.6, 1180.2,613.0,433.5,-74,112,843.1,731.1
5652940,34288,34.288,1,50.48533, 6.19336,804.6, 159.0, 1164.8,597.6,433.5,-77,158,826.8,668.8
5653940,35288,35.288,1,50.48535, 6.19327,798.3, 161.2, 1153.9,586.7,433.5,-76,141,814.3,673.3
5654940,36288,36.288,0,50.48537, 6.19321,794.1, 163.5, 1143.4,576.2,433.5,-72,89,803.4,714.4
5656340,37688,37.688,0,50.48544, 6.19309,785.6, 171.2, 1127.9,560.7,433.5,-74,112,785.1,673.1
5667081,48429,48.429,0,50.48573, 6.1922,723.1, 203.5, 1026.7,459.5,433.5,-75,125,664.6,539.6
5669881,51229,51.229,1,50.48577, 6.19189,701.3, 207.9, 998.4,431.2,433.5,-76,141,629.0,488.0
5670881,52229,52.229,0,50.48578, 6.19183,697.1, 209.1, 989.3,422.1,433.5,-72,89,619.6,530.6
5672164,53512,53.512,1,50.48581, 6.19169,687.2, 212.4, 976.6,409.4,433.5,-70,70,603.4,533.4
5673364,54712,54.712,0,50.48582, 6.19162,682.3, 213.5, 965.8,398.6,433.5,-76,141,592.4,451.4
5679573,60921,60.921,1,50.4859, 6.19106,643.0, 222.4, 904.7,337.5,433.5,-73,100,521.8,421.8
5680573,61921,61.921,1,50.48592, 6.19098,637.3, 224.6, 893.2,326.0,433.5,-69,63,509.8,446.8
5681573,62921,62.921,1,50.48595, 6.19089,631.0, 228.0, 883.0,315.8,433.5,-75,125,497.9,372.9
5682973,64321,64.321,1,50.48598, 6.19078,623.3, 231.3, 868.6,301.4,433.5,-75,125,482.3,357.3
5683973,65321,65.321,0,50.486, 6.19072,619.1, 233.5, 858.5,291.3,433.5,-72,89,472.4,383.4
5685173,66521,66.521,1,50.48603, 6.1906,610.6, 236.9, 846.6,279.4,433.5,-74,112,458.0,346.0
5686373,67721,67.721,1,50.48604, 6.19052,605.0, 238.0, 835.3,268.1,433.5,-76,141,446.6,305.6
5690240,71588,71.588,1,50.48608, 6.19028,588.2, 242.4, 812.6,245.4,433.5,-68,56,419.1,363.1
5692440,73788,73.788,1,50.48609, 6.19014,578.3, 243.5, 777.1,209.9,433.5,-69,63,391.1,328.1
5697240,78588,78.588,1,50.48612, 6.18985,557.9, 246.9, 730.4,163.2,433.5,-67,50,350.0,300.0
5698240,79588,79.588,1,50.48613, 6.18978,553.0, 248.0, 719.9,152.7,433.5,-67,50,340.7,290.7
5699240,80588,80.588,1,50.48613, 6.18973,549.5, 248.0, 708.7,141.5,433.5,-70,70,332.8,262.8
5700240,81588,81.588,1,50.48613, 6.18967,545.3, 248.0, 698.2,131.0,433.5,-73,100,324.8,224.8
5701240,82588,82.588,0,50.48613, 6.18963,542.5, 248.0, 687.7,120.5,433.5,-69,63,318.2,255.2
5702240,83588,83.588,1,50.48613, 6.18955,536.9, 248.0, 676.8,109.6,433.5,-68,56,309.3,253.3
5703440,84788,84.788,1,50.48613, 6.18949,532.6, 248.0, 663.5,96.3,433.5,-83,316,301.1,14.9
5706083,87431,87.431,0,50.48611, 6.18935,522.8, 245.8, 635.9,68.7,433.5,-67,50,285.2,235.2
5707483,88831,88.831,1,50.48609, 6.18924,515.1, 243.5, 620.3,53.1,433.5,-72,89,275.5,186.5
5708683,90031,90.031,0,50.48608, 6.18917,510.2, 242.4, 605.1,37.9,433.5,-69,63,268.9,205.9
5710083,91431,91.431,1,50.48608, 6.18905,501.7, 242.4, 586.1,18.9,433.5,-73,100,259.1,159.1
