ts,rel.ts (msec),rel.ts (sec), new GSP, lat.,long.,canX (m),canY (m),altitude,rel. altitude (m),frequency (MHz),rssi (dBm),distance (m from RF),distance (m from GPS),error (m),new_distance,new_error
3852051,5800,5.8,0,37.29822, -3.68362,-1.4, 0.0, 728.0,44.5,435.0,-60,22,159.9,137.9,159.0,0.9
3852651,6400,6.4,0,37.29822, -3.68361,-0.7, 0.0, 781.6,98.1,435.0,-60,22,182.5,160.5,182.0,0.5
3853451,7200,7.2,0,37.29821, -3.6836,0.0, -1.1, 870.0,186.5,435.0,-72,89,242.6,153.6,242.0,0.6
3854051,7800,7.8,1,37.29819, -3.68354,4.2, -3.3, 949.9,266.4,435.0,-78,177,310.3,133.3,310.0,0.2
3854651,8400,8.4,1,37.29817, -3.6835,7.0, -5.6, 1038.4,354.9,435.0,-78,177,390.2,213.2,390.0,0.3
3932812,86561,86.561,1,37.2987, -3.68333,19.0, 53.4, 1037.7,354.2,435.0,-84,354,374.3,20.3,374.0,0.3
3934212,87961,87.961,0,37.29869, -3.68335,17.6, 52.3, 1023.6,340.1,435.0,-83,316,360.9,44.9,360.0,0.9
3935412,89161,89.161,1,37.29866, -3.6834,14.1, 48.9, 1012.5,329.0,435.0,-82,281,350.5,69.5,350.0,0.5
3937612,91361,91.361,1,37.29863, -3.68345,10.5, 45.6, 992.3,308.8,435.0,-80,223,331.7,108.7,331.0,0.7
3942412,96161,96.161,1,37.29858, -3.68352,5.6, 40.0, 947.0,263.5,435.0,-82,281,290.6,9.6,290.0,0.6
3943812,97561,97.561,0,37.29858, -3.68352,5.6, 40.0, 934.8,251.3,435.0,-78,177,279.6,102.6,279.0,0.6
3947519,101268,101.268,1,37.29853, -3.6836,0.0, 34.5, 927.7,244.2,435.0,-79,199,273.9,74.9,273.0,0.8
3948319,102068,102.068,0,37.29853, -3.68362,-1.4, 34.5, 894.7,211.2,435.0,-77,158,244.5,86.5,244.0,0.5
3948919,102668,102.668,0,37.29852, -3.68364,-2.8, 33.4, 890.2,206.7,435.0,-79,199,240.7,41.7,240.0,0.7
3949519,103268,103.268,0,37.29851, -3.68365,-3.5, 32.2, 884.6,201.1,435.0,-80,223,236.3,13.3,236.0,0.3
3950119,103868,103.868,0,37.29851, -3.68366,-4.2, 32.2, 878.7,195.2,435.0,-83,316,231.1,84.9,231.0,0.1
3950719,104468,104.468,1,37.29849, -3.68369,-6.3, 30.0, 872.4,188.9,435.0,-76,141,226.3,85.3,226.0,0.3
3952319,106068,106.068,1,37.29847, -3.68373,-9.1, 27.8, 858.0,174.5,435.0,-80,223,214.8,8.2,214.0,0.8
3952919,106668,106.668,1,37.29847, -3.68374,-9.8, 27.8, 853.0,169.5,435.0,-82,281,210.5,70.5,210.0,0.6
3953519,107268,107.268,0,37.29847, -3.68374,-9.8, 27.8, 846.4,162.9,435.0,-78,177,205.3,28.3,205.0,0.3
3954119,107868,107.868,0,37.29846, -3.68376,-11.2, 26.7, 839.6,156.1,435.0,-81,251,200.1,50.9,200.0,0.2
3954719,108468,108.468,0,37.29845, -3.68378,-12.6, 25.6, 832.3,148.8,435.0,-74,112,194.8,82.8,194.0,0.8
3955319,109068,109.068,1,37.29844, -3.68379,-13.4, 24.5, 825.6,142.1,435.0,-75,125,190.2,65.2,190.0,0.1
3955919,109668,109.668,0,37.29843, -3.68379,-13.4, 23.4, 818.9,135.4,435.0,-75,125,185.9,60.9,185.0,0.9
3956519,110268,110.268,1,37.29842, -3.6838,-14.1, 22.2, 812.9,129.4,435.0,-77,158,182.1,24.1,182.0,0.1
3957119,110868,110.868,0,37.29841, -3.68381,-14.8, 21.1, 806.1,122.6,435.0,-76,141,177.8,36.8,177.0,0.9
3959519,113268,113.268,0,37.29837, -3.68384,-16.9, 16.7, 780.2,96.7,435.0,-74,112,163.7,51.7,163.0,0.7
3960919,114668,114.668,1,37.29835, -3.68387,-19.0, 14.5, 765.9,82.4,435.0,-74,112,156.8,44.8,156.0,0.8
3963919,117668,117.668,0,37.29834, -3.6839,-21.1, 13.3, 735.4,51.9,435.0,-75,125,143.5,18.5,143.0,0.5
3965519,119268,119.268,1,37.29831, -3.68393,-23.2, 10.0, 719.2,35.7,435.0,-81,251,140.8,110.2,140.0,0.8
3966119,119868,119.868,1,37.29831, -3.68393,-23.2, 10.0, 713.0,29.5,435.0,-78,177,139.4,37.6,139.0,0.4
3966719,120468,120.468,1,37.2983, -3.68393,-23.2, 8.9, 706.2,22.7,435.0,-82,281,139.1,141.9,139.0,0.1
