avg ts, avg ts rel, avg_gps_lat, avg_gps_long, avg_gps_x_pos, avg_gps_y_pos, beacon0_ts, beacon0_latitude, beacon0_longitude, beacon0_freq, beacon0_rssi, beacon0_dist, beacon1_ts, beacon1_latitude, beacon1_longitude, beacon1_freq, beacon1_rssi, beacon1_dist, deltaT (sec.), avg_rel_alt,delay (msec), quality,fixed error,x,y, error (m vs. gps), intermediate values,beacon0_new_distance,beacon1_new_distance,new_x,new_y,new_quality,new_error,new_info
3852251, 6000,37.29822,-3.6836149999999996,-1.1,0.0,3852051,37.29822,-3.68362,435.0,-60,22, 3852451,37.29822,-3.68361,434.5,-77,99, 0.4, 61.65,400,POOR,True,-66.26,-66.26,93.0, INPUT: rel_alt=61.64999999999998 gpsXY: (-1.0540499999756991;0.0) b0dist: 22 b1dist: 99) Cannot calculate X0: beacon0_distance**2 - relative_altitude**2 < 0 (b0_dist=22 & rel_alt=61.64999999999998. Set X0 to 0)X0=0.0000 X1=77.4615  x0+x1 <= distance between beacons (426.719769370971). Forced position on inter-beacons segments at 0.00 of inter-beacon distance from beacon 0.,25.0,298.0,-66.3,-66.3,POOR,92.9,INPUT: rel_alt=61.65 gpsXY: (-1.1;0.0) b0dist: 25 b1dist: 298) Cannot calculate X0: beacon0_distance**2 - relative_altitude**2 < 0 (b0_dist=25 & rel_alt=61.65. Set X0 to 0)X0=0.0000 X1=291.5532  x0+x1 <= distance between beacons (426.719769370971). Forced position on inter-beacons segments at 0.00 of inter-beacon distance from beacon 0.
3852551, 6300,37.29822,-3.68361,-0.7,0.0,3852651,37.29822,-3.68361,435.0,-60,22, 3852451,37.29822,-3.68361,434.5,-77,99, 0.2, 88.45,200,POOR,True,-66.26,-66.26,93.2, INPUT: rel_alt=88.44999999999999 gpsXY: (-0.7026999999733974;0.0) b0dist: 22 b1dist: 99) Cannot calculate X0: beacon0_distance**2 - relative_altitude**2 < 0 (b0_dist=22 & rel_alt=88.44999999999999. Set X0 to 0)X0=0.0000 X1=44.4702  x0+x1 <= distance between beacons (426.719769370971). Forced position on inter-beacons segments at 0.00 of inter-beacon distance from beacon 0.,31.0,298.0,-66.3,-66.3,POOR,93.2,INPUT: rel_alt=88.45 gpsXY: (-0.7;0.0) b0dist: 31 b1dist: 298) Cannot calculate X0: beacon0_distance**2 - relative_altitude**2 < 0 (b0_dist=31 & rel_alt=88.45. Set X0 to 0)X0=0.0000 X1=284.5709  x0+x1 <= distance between beacons (426.719769370971). Forced position on inter-beacons segments at 0.00 of inter-beacon distance from beacon 0.
3854151, 7900,37.29819,-3.68354,4.2,-3.3,3854051,37.29819,-3.68354,435.0,-78,177, 3854251,37.29819,-3.68354,434.5,-80,141, 0.2, 280.95,200,BAD,True,10000000000.00,10000000000.00,-1.0, INPUT: rel_alt=280.95 gpsXY: (4.216200000027621;-3.3360000002687684) b0dist: 177 b1dist: 141) Cannot calculate X0: beacon0_distance**2 - relative_altitude**2 < 0 (b0_dist=177 & rel_alt=280.95. Set X0 to 0)cannot calculate X1: beacon1_distance**2 - relative_altitude**2 < 0 (b1_dist=141 & rel_alt=280.95)X1 + X0 = 0. No calculation,310.0,410.0,-33.1,12.5,GOOD,40.5,INPUT: rel_alt=280.95 gpsXY: (4.2;-3.3) b0dist: 310 b1dist: 410) X0=131.0233 X1=298.6086 a=128.9954 b=297.7244 h=22.9628 x5=-55.9833 y5=10.6374 x3=-33.0936 y3=12.4676 x4=-78.8730 y4=8.8072 distP3=40.49 distP4=83.95
3854451, 8200,37.29818,-3.6835199999999997,5.6,-4.4,3854651,37.29817,-3.6835,435.0,-78,177, 3854251,37.29819,-3.68354,434.5,-80,141, 0.4, 325.20,400,BAD,True,10000000000.00,10000000000.00,-1.0, INPUT: rel_alt=325.20000000000005 gpsXY: (5.621600000021225;-4.448000000226671) b0dist: 177 b1dist: 141) Cannot calculate X0: beacon0_distance**2 - relative_altitude**2 < 0 (b0_dist=177 & rel_alt=325.20000000000005. Set X0 to 0)cannot calculate X1: beacon1_distance**2 - relative_altitude**2 < 0 (b1_dist=141 & rel_alt=325.20000000000005)X1 + X0 = 0. No calculation,221.0,270.0,10000000000.0,10000000000.0,BAD,-1.0,INPUT: rel_alt=325.2 gpsXY: (5.6;-4.4) b0dist: 221 b1dist: 270) Cannot calculate X0: beacon0_distance**2 - relative_altitude**2 < 0 (b0_dist=221 & rel_alt=325.2. Set X0 to 0)cannot calculate X1: beacon1_distance**2 - relative_altitude**2 < 0 (b1_dist=270 & rel_alt=325.2)X1 + X0 = 0. No calculation
3888831, 42580,37.298505,-3.6832700000000003,23.2,31.7,3854651,37.29817,-3.6835,435.0,-78,177, 3923012,37.29884,-3.68304,434.5,-83,199, 68.361, 400.10,68361,BAD,True,10000000000.00,10000000000.00,-1.0, INPUT: rel_alt=400.1 gpsXY: (23.18910000001149;31.691999999787868) b0dist: 177 b1dist: 199) Cannot calculate X0: beacon0_distance**2 - relative_altitude**2 < 0 (b0_dist=177 & rel_alt=400.1. Set X0 to 0)cannot calculate X1: beacon1_distance**2 - relative_altitude**2 < 0 (b1_dist=199 & rel_alt=400.1)X1 + X0 = 0. No calculation,390.0,574.0,-66.3,-66.3,BAD,132.7,INPUT: rel_alt=400.1 gpsXY: (23.2;31.7) b0dist: 390 b1dist: 574) Cannot calculate X0: beacon0_distance**2 - relative_altitude**2 < 0 (b0_dist=390 & rel_alt=400.1. Set X0 to 0)X0=0.0000 X1=411.5774  x0+x1 <= distance between beacons (426.719769370971). Forced position on inter-beacons segments at 0.00 of inter-beacon distance from beacon 0.
3927912, 81661,37.29877,-3.683185,29.2,61.2,3932812,37.2987,-3.68333,435.0,-84,354, 3923012,37.29884,-3.68304,434.5,-83,199, 9.8, 399.75,9800,BAD,True,10000000000.00,10000000000.00,-1.0, INPUT: rel_alt=399.75 gpsXY: (29.16205000000381;61.15999999965993) b0dist: 354 b1dist: 199) Cannot calculate X0: beacon0_distance**2 - relative_altitude**2 < 0 (b0_dist=354 & rel_alt=399.75. Set X0 to 0)cannot calculate X1: beacon1_distance**2 - relative_altitude**2 < 0 (b1_dist=199 & rel_alt=399.75)X1 + X0 = 0. No calculation,778.0,574.0,372.2,-364.0,BAD,546.3,INPUT: rel_alt=399.75 gpsXY: (29.2;61.2) b0dist: 778 b1dist: 574) X0=667.4458 X1=411.9174 a=536.5322 b=-109.8124 h=397.0103 x5=-23.5016 y5=-395.6029 x3=372.2457 y3=-363.9601 x4=-419.2489 y4=-427.2456 distP3=546.30 distP4=663.09
3932912, 86661,37.2987,-3.683335,18.6,53.4,3932812,37.2987,-3.68333,435.0,-84,354, 3933012,37.2987,-3.68334,434.5,-82,177, 0.2, 353.40,200,POOR,True,-32.25,-213.18,271.4, INPUT: rel_alt=353.4 gpsXY: (18.62155000001277;53.37599999955955) b0dist: 354 b1dist: 177) cannot calculate X1: beacon1_distance**2 - relative_altitude**2 < 0 (b1_dist=177 & rel_alt=353.4)X0=20.6019 X1=0.0000  x0+x1 <= distance between beacons (426.719769370971). Forced position on inter-beacons segments at 1.00 of inter-beacon distance from beacon 0.,374.0,492.0,19.8,52.2,GOOD,1.7,INPUT: rel_alt=353.4 gpsXY: (18.6;53.4) b0dist: 374 b1dist: 492) X0=122.4109 X1=342.3046 a=93.6232 b=333.0965 h=78.8615 x5=-58.8026 y5=45.8970 x3=19.8080 y3=52.1825 x4=-137.4132 y4=39.6116 distP3=1.72 distP4=156.62
3933612, 87361,37.298694999999995,-3.683345,17.9,52.8,3934212,37.29869,-3.68335,435.0,-83,316, 3933012,37.2987,-3.68334,434.5,-82,177, 1.2, 346.35,1200,BAD,True,10000000000.00,10000000000.00,-1.0, INPUT: rel_alt=346.34999999999997 gpsXY: (17.91885000002377;52.81999999977813) b0dist: 316 b1dist: 177) Cannot calculate X0: beacon0_distance**2 - relative_altitude**2 < 0 (b0_dist=316 & rel_alt=346.34999999999997. Set X0 to 0)cannot calculate X1: beacon1_distance**2 - relative_altitude**2 < 0 (b1_dist=177 & rel_alt=346.34999999999997)X1 + X0 = 0. No calculation,360.0,492.0,-5.3,62.3,GOOD,25.0,INPUT: rel_alt=346.35 gpsXY: (17.9;52.8) b0dist: 360 b1dist: 492) X0=98.1920 X1=349.4362 a=81.5825 b=345.1372 h=54.6440 x5=-59.7623 y5=57.8994 x3=-5.2921 y3=62.2547 x4=-114.2324 y4=53.5441 distP3=25.05 distP4=132.13
3934312, 88061,37.29869,-3.68335,17.6,52.3,3934212,37.29869,-3.68335,435.0,-83,316, 3934412,37.29869,-3.68335,434.5,-85,251, 0.2, 339.20,200,BAD,True,10000000000.00,10000000000.00,-1.0, INPUT: rel_alt=339.2 gpsXY: (17.567500000021468;52.26399999999671) b0dist: 316 b1dist: 251) Cannot calculate X0: beacon0_distance**2 - relative_altitude**2 < 0 (b0_dist=316 & rel_alt=339.2. Set X0 to 0)cannot calculate X1: beacon1_distance**2 - relative_altitude**2 < 0 (b1_dist=251 & rel_alt=339.2)X1 + X0 = 0. No calculation,360.0,481.0,16.4,51.4,GOOD,1.5,INPUT: rel_alt=339.2 gpsXY: (17.6;52.3) b0dist: 360 b1dist: 481) X0=120.5959 X1=341.0343 a=94.1236 b=332.5962 h=75.3931 x5=-58.7627 y5=45.3983 x3=16.3905 y3=51.4073 x4=-133.9159 y4=39.3893 distP3=1.50 distP4=152.07
3934912, 88661,37.298675,-3.683375,15.8,50.6,3935412,37.29866,-3.6834,435.0,-82,281, 3934412,37.29869,-3.68335,434.5,-85,251, 1.0, 333.65,1000,BAD,True,10000000000.00,10000000000.00,-1.0, INPUT: rel_alt=333.65 gpsXY: (15.810750000025564;50.59599999986233) b0dist: 281 b1dist: 251) Cannot calculate X0: beacon0_distance**2 - relative_altitude**2 < 0 (b0_dist=281 & rel_alt=333.65. Set X0 to 0)cannot calculate X1: beacon1_distance**2 - relative_altitude**2 < 0 (b1_dist=251 & rel_alt=333.65)X1 + X0 = 0. No calculation,350.0,481.0,2.1,58.6,GOOD,15.8,INPUT: rel_alt=333.65 gpsXY: (15.8;50.6) b0dist: 350 b1dist: 481) X0=105.7245 X1=346.4660 a=85.8043 b=340.9155 h=61.7681 x5=-59.4258 y5=53.6911 x3=2.1459 y3=58.6142 x4=-120.9974 y4=48.7680 distP3=15.83 distP4=136.81
3953119, 106868,37.29847,-3.68374,-9.8,27.8,3952919,37.29847,-3.68374,435.0,-82,281, 3953319,37.29847,-3.68374,434.5,-82,177, 0.4, 167.45,400,POOR,True,-39.15,-183.41,213.2, INPUT: rel_alt=167.45 gpsXY: (-9.83779999997083;27.80000000013274) b0dist: 281 b1dist: 177) X0=225.6579 X1=57.3541  x0+x1 <= distance between beacons (426.719769370971). Forced position on inter-beacons segments at 0.80 of inter-beacon distance from beacon 0.,210.0,355.0,-9.3,26.0,GOOD,1.8,INPUT: rel_alt=167.45 gpsXY: (-9.8;27.8) b0dist: 210 b1dist: 355) X0=126.7300 X1=313.0264 a=117.3660 b=309.3538 h=47.8093 x5=-56.9102 y5=22.2298 x3=-9.2531 y3=26.0403 x4=-104.5674 y4=18.4193 distP3=1.84 distP4=95.23
3953419, 107168,37.29847,-3.68374,-9.8,27.8,3953519,37.29847,-3.68374,435.0,-78,177, 3953319,37.29847,-3.68374,434.5,-82,177, 0.2, 164.15,200,POOR,True,-49.26,-139.72,172.1, INPUT: rel_alt=164.14999999999998 gpsXY: (-9.83779999997083;27.80000000013274) b0dist: 177 b1dist: 177) X0=66.2101 X1=66.2101  x0+x1 <= distance between beacons (426.719769370971). Forced position on inter-beacons segments at 0.50 of inter-beacon distance from beacon 0.,205.0,355.0,-14.0,28.1,GOOD,4.2,INPUT: rel_alt=164.15 gpsXY: (-9.8;27.8) b0dist: 205 b1dist: 355) X0=122.7997 X1=314.7694 a=114.9346 b=311.7851 h=43.2413 x5=-57.1040 y5=24.6534 x3=-14.0003 y3=28.0999 x4=-100.2077 y4=21.2070 distP3=4.21 distP4=90.65
3954319, 108068,37.298455000000004,-3.68377,-11.9,26.1,3954119,37.29846,-3.68376,435.0,-81,251, 3954519,37.29845,-3.68378,434.5,-83,199, 0.4, 153.80,400,POOR,True,-45.48,-156.03,185.2, INPUT: rel_alt=153.8 gpsXY: (-11.945899999984642;26.131999999998357) b0dist: 251 b1dist: 199) X0=198.3597 X1=126.2797  x0+x1 <= distance between beacons (426.719769370971). Forced position on inter-beacons segments at 0.61 of inter-beacon distance from beacon 0.,200.0,347.0,-10.5,24.2,GOOD,2.4,INPUT: rel_alt=153.8 gpsXY: (-11.9;26.1) b0dist: 200 b1dist: 347) X0=127.8498 X1=311.0540 a=119.1423 b=307.5775 h=46.3753 x5=-56.7687 y5=20.4591 x3=-10.5409 y3=24.1553 x4=-102.9964 y4=16.7629 distP3=2.37 distP4=91.57
3954619, 108368,37.29845,-3.68378,-12.6,25.6,3954719,37.29845,-3.68378,435.0,-74,112, 3954519,37.29845,-3.68378,434.5,-83,199, 0.2, 150.15,200,POOR,True,-66.26,-66.26,106.3, INPUT: rel_alt=150.14999999999998 gpsXY: (-12.648599999989244;25.576000000216936) b0dist: 112 b1dist: 199) Cannot calculate X0: beacon0_distance**2 - relative_altitude**2 < 0 (b0_dist=112 & rel_alt=150.14999999999998. Set X0 to 0)X0=0.0000 X1=130.5985  x0+x1 <= distance between beacons (426.719769370971). Forced position on inter-beacons segments at 0.00 of inter-beacon distance from beacon 0.,194.0,347.0,-17.8,26.4,GOOD,5.2,INPUT: rel_alt=150.15 gpsXY: (-12.6;25.6) b0dist: 194 b1dist: 347) X0=122.8453 X1=312.8322 a=116.3723 b=310.3474 h=39.3504 x5=-56.9894 y5=23.2203 x3=-17.7642 y3=26.3566 x4=-96.2147 y4=20.0839 distP3=5.22 distP4=83.80
3955519, 109268,37.298435,-3.68379,-13.4,23.9,3955319,37.29844,-3.68379,435.0,-75,125, 3955719,37.29843,-3.68379,434.5,-83,199, 0.4, 140.10,400,POOR,True,-66.26,-66.26,104.6, INPUT: rel_alt=140.10000000000002 gpsXY: (-13.351299999993849;23.908000000082552) b0dist: 125 b1dist: 199) Cannot calculate X0: beacon0_distance**2 - relative_altitude**2 < 0 (b0_dist=125 & rel_alt=140.10000000000002. Set X0 to 0)X0=0.0000 X1=141.3258  x0+x1 <= distance between beacons (426.719769370971). Forced position on inter-beacons segments at 0.00 of inter-beacon distance from beacon 0.,190.0,339.0,-14.0,22.0,GOOD,2.0,INPUT: rel_alt=140.1 gpsXY: (-13.4;23.9) b0dist: 190 b1dist: 339) X0=128.3433 X1=308.6956 a=121.0030 b=305.7167 h=42.7815 x5=-56.6204 y5=18.6043 x3=-13.9749 y3=22.0141 x4=-99.2658 y4=15.1945 distP3=1.97 distP4=86.31
3955819, 109568,37.29843,-3.68379,-13.4,23.4,3955919,37.29843,-3.68379,435.0,-75,125, 3955719,37.29843,-3.68379,434.5,-83,199, 0.2, 136.75,200,POOR,True,-66.26,-66.26,104.1, INPUT: rel_alt=136.75 gpsXY: (-13.351299999993849;23.352000000301132) b0dist: 125 b1dist: 199) Cannot calculate X0: beacon0_distance**2 - relative_altitude**2 < 0 (b0_dist=125 & rel_alt=136.75. Set X0 to 0)X0=0.0000 X1=144.5698  x0+x1 <= distance between beacons (426.719769370971). Forced position on inter-beacons segments at 0.00 of inter-beacon distance from beacon 0.,185.0,339.0,-19.4,23.8,GOOD,6.0,INPUT: rel_alt=136.75 gpsXY: (-13.4;23.4) b0dist: 185 b1dist: 339) X0=124.5971 X1=310.1942 a=118.8060 b=307.9137 h=37.5442 x5=-56.7955 y5=20.7943 x3=-19.3707 y3=23.7867 x4=-94.2202 y4=17.8020 distP3=5.98 distP4=81.01
